…
## fritz_log()

Simply call `fritz_log()` with the path to the log file to get a
well-formatted tibble of device login activity which can be used for
further analysis. The function has no other parameters.

``` r
library(fritzlog)

fritz_log(file)
#> # A tibble: 87 × 3
#>    Timestamp           Device     Message                                       
#>    <dttm>              <chr>      <chr>                                         
#>  1 2022-06-25 14:53:09 Pixel3a    WLAN-Gerät hat sich neu angemeldet (5 GHz), 8…
#>  2 2022-06-25 12:50:13 Pixel3a    WLAN-Gerät hat sich neu angemeldet (2,4 GHz),…
#>  3 2022-06-25 12:46:57 Pixel3a    WLAN-Gerät hat sich neu angemeldet (5 GHz), 8…
#>  4 2022-06-25 06:37:55 Galaxy-A52 WLAN-Gerät hat sich neu angemeldet (2,4 GHz),…
#>  5 2022-06-25 05:53:07 Galaxy-A12 WLAN-Gerät angemeldet (2,4 GHz), 72 Mbit/s, G…
#>  6 2022-06-24 19:30:05 Pixel3a    WLAN-Gerät angemeldet (2,4 GHz), 144 Mbit/s, …
#>  7 2022-06-24 19:25:09 Pixel3a    WLAN-Gerät hat sich neu angemeldet (2,4 GHz),…
#>  8 2022-06-24 18:31:27 Galaxy-A12 WLAN-Gerät angemeldet (2,4 GHz), 72 Mbit/s, G…
#>  9 2022-06-24 18:28:53 Galaxy-A52 WLAN-Gerät angemeldet (5 GHz), 433 Mbit/s, Ga…
#> 10 2022-06-24 12:33:15 Pixel3a    WLAN-Gerät hat sich neu angemeldet (5 GHz), 8…
#> # … with 77 more rows
```
…
